{
  "info" : {
    "version" : 1,
    "author" : "xcode"
  },
  "resources" : [
    {
      "filename" : "endless-1.arreferenceimage"
    },
    {
      "filename" : "endless2-1.arreferenceimage"
    },
    {
      "filename" : "endless3-1.arreferenceimage"
    },
    {
      "filename" : "infinity-symbol-135795-2487281.arreferenceimage"
    }
  ]
}