{
  "images" : [
    {
      "idiom" : "universal",
      "filename" : "endless2-01.jpg"
    }
  ],
  "info" : {
    "version" : 1,
    "author" : "xcode"
  },
  "properties" : {
    "width" : 9,
    "unit" : "centimeters"
  }
}